2002.11.23 11:39 B C:\Documents and Settings\Andrew G. Stanton\My Documents\california-tours-2002-11-23\japansffliers\back.gif <-- California Tours /public_html/sffliers back.gif
2002.11.23 11:39 B C:\Documents and Settings\Andrew G. Stanton\My Documents\california-tours-2002-11-23\japansffliers\close.html <-- California Tours /public_html/sffliers close.html
2002.11.23 11:39 B C:\Documents and Settings\Andrew G. Stanton\My Documents\california-tours-2002-11-23\japansffliers\docload.html <-- California Tours /public_html/sffliers docload.html
2002.11.23 11:39 B C:\Documents and Settings\Andrew G. Stanton\My Documents\california-tours-2002-11-23\japansffliers\frame.html <-- California Tours /public_html/sffliers frame.html
2002.11.23 11:39 B C:\Documents and Settings\Andrew G. Stanton\My Documents\california-tours-2002-11-23\japansffliers\framenoimg.html <-- California Tours /public_html/sffliers framenoimg.html
2002.11.23 11:39 B C:\Documents and Settings\Andrew G. Stanton\My Documents\california-tours-2002-11-23\japansffliers\framewimg.html <-- California Tours /public_html/sffliers framewimg.html
2002.11.23 11:39 B C:\Documents and Settings\Andrew G. Stanton\My Documents\california-tours-2002-11-23\japansffliers\img.html <-- California Tours /public_html/sffliers img.html
2002.11.23 11:39 B C:\Documents and Settings\Andrew G. Stanton\My Documents\california-tours-2002-11-23\japansffliers\imgload.html <-- California Tours /public_html/sffliers imgload.html
2002.11.23 11:39 B C:\Documents and Settings\Andrew G. Stanton\My Documents\california-tours-2002-11-23\japansffliers\imgpopup.html <-- California Tours /public_html/sffliers imgpopup.html
2002.11.23 11:39 B C:\Documents and Settings\Andrew G. Stanton\My Documents\california-tours-2002-11-23\japansffliers\loadcal.html <-- California Tours /public_html/sffliers loadcal.html
2002.11.23 11:39 B C:\Documents and Settings\Andrew G. Stanton\My Documents\california-tours-2002-11-23\japansffliers\popup.html <-- California Tours /public_html/sffliers popup.html
2002.11.23 11:39 B C:\Documents and Settings\Andrew G. Stanton\My Documents\california-tours-2002-11-23\japansffliers\sig.gif <-- California Tours /public_html/sffliers sig.gif
2002.11.23 11:39 B C:\Documents and Settings\Andrew G. Stanton\My Documents\california-tours-2002-11-23\japansffliers\sign.html <-- California Tours /public_html/sffliers sign.html
2002.11.23 11:39 B C:\Documents and Settings\Andrew G. Stanton\My Documents\california-tours-2002-11-23\japansffliers\sign_hd.jpg <-- California Tours /public_html/sffliers sign_hd.jpg
2002.11.23 11:39 B C:\Documents and Settings\Andrew G. Stanton\My Documents\california-tours-2002-11-23\japansffliers\top.html <-- California Tours /public_html/sffliers top.html
2002.11.23 11:39 B C:\Documents and Settings\Andrew G. Stanton\My Documents\california-tours-2002-11-23\japansffliers\topnoimg.html <-- California Tours /public_html/sffliers topnoimg.html
2002.11.23 11:39 B C:\Documents and Settings\Andrew G. Stanton\My Documents\california-tours-2002-11-23\japansffliers\topwimg.html <-- California Tours /public_html/sffliers topwimg.html
2002.11.23 11:39 B C:\Documents and Settings\Andrew G. Stanton\My Documents\california-tours-2002-11-23\japansffliers\tou.gif <-- California Tours /public_html/sffliers tou.gif
2002.11.23 11:39 B C:\Documents and Settings\Andrew G. Stanton\My Documents\california-tours-2002-11-23\japansffliers\view.gif <-- California Tours /public_html/sffliers view.gif
2002.11.23 11:39 B C:\Documents and Settings\Andrew G. Stanton\My Documents\california-tours-2002-11-23\japansffliers\view.xar <-- California Tours /public_html/sffliers view.xar
2002.11.23 12:36 B C:\Documents and Settings\Andrew G. Stanton\My Documents\california-tours-2002-11-23\japanlafliers\back.gif --> ftp.california-tour.com /public_html/japanlafliers back.gif
2002.11.23 12:36 B C:\Documents and Settings\Andrew G. Stanton\My Documents\california-tours-2002-11-23\japanlafliers\close.html --> ftp.california-tour.com /public_html/japanlafliers close.html
2002.11.23 12:36 B C:\Documents and Settings\Andrew G. Stanton\My Documents\california-tours-2002-11-23\japanlafliers\docload.html --> ftp.california-tour.com /public_html/japanlafliers docload.html
2002.11.23 12:36 B C:\Documents and Settings\Andrew G. Stanton\My Documents\california-tours-2002-11-23\japanlafliers\frame.html --> ftp.california-tour.com /public_html/japanlafliers frame.html
2002.11.23 12:36 B C:\Documents and Settings\Andrew G. Stanton\My Documents\california-tours-2002-11-23\japanlafliers\framenoimg.html --> ftp.california-tour.com /public_html/japanlafliers framenoimg.html
2002.11.23 12:36 B C:\Documents and Settings\Andrew G. Stanton\My Documents\california-tours-2002-11-23\japanlafliers\framewimg.html --> ftp.california-tour.com /public_html/japanlafliers framewimg.html
2002.11.23 12:36 B C:\Documents and Settings\Andrew G. Stanton\My Documents\california-tours-2002-11-23\japanlafliers\img.html --> ftp.california-tour.com /public_html/japanlafliers img.html
2002.11.23 12:36 B C:\Documents and Settings\Andrew G. Stanton\My Documents\california-tours-2002-11-23\japanlafliers\imgload.html --> ftp.california-tour.com /public_html/japanlafliers imgload.html
2002.11.23 12:36 B C:\Documents and Settings\Andrew G. Stanton\My Documents\california-tours-2002-11-23\japanlafliers\imgpopup.html --> ftp.california-tour.com /public_html/japanlafliers imgpopup.html
2002.11.23 12:36 B C:\Documents and Settings\Andrew G. Stanton\My Documents\california-tours-2002-11-23\japanlafliers\loadcal.html --> ftp.california-tour.com /public_html/japanlafliers loadcal.html
2002.11.23 12:36 B C:\Documents and Settings\Andrew G. Stanton\My Documents\california-tours-2002-11-23\japanlafliers\popup.html --> ftp.california-tour.com /public_html/japanlafliers popup.html
2002.11.23 12:36 B C:\Documents and Settings\Andrew G. Stanton\My Documents\california-tours-2002-11-23\japanlafliers\sig.gif --> ftp.california-tour.com /public_html/japanlafliers sig.gif
2002.11.23 12:36 B C:\Documents and Settings\Andrew G. Stanton\My Documents\california-tours-2002-11-23\japanlafliers\sign.html --> ftp.california-tour.com /public_html/japanlafliers sign.html
2002.11.23 12:37 B C:\Documents and Settings\Andrew G. Stanton\My Documents\california-tours-2002-11-23\japanlafliers\sign_hd.jpg --> ftp.california-tour.com /public_html/japanlafliers sign_hd.jpg
2002.11.23 12:37 B C:\Documents and Settings\Andrew G. Stanton\My Documents\california-tours-2002-11-23\japanlafliers\top.html --> ftp.california-tour.com /public_html/japanlafliers top.html
2002.11.23 12:37 B C:\Documents and Settings\Andrew G. Stanton\My Documents\california-tours-2002-11-23\japanlafliers\topnoimg.html --> ftp.california-tour.com /public_html/japanlafliers topnoimg.html
2002.11.23 12:37 B C:\Documents and Settings\Andrew G. Stanton\My Documents\california-tours-2002-11-23\japanlafliers\topwimg.html --> ftp.california-tour.com /public_html/japanlafliers topwimg.html
2002.11.23 12:37 B C:\Documents and Settings\Andrew G. Stanton\My Documents\california-tours-2002-11-23\japanlafliers\tou.gif --> ftp.california-tour.com /public_html/japanlafliers tou.gif
2002.11.23 12:37 B C:\Documents and Settings\Andrew G. Stanton\My Documents\california-tours-2002-11-23\japanlafliers\view.gif --> ftp.california-tour.com /public_html/japanlafliers view.gif
2002.11.23 12:37 B C:\Documents and Settings\Andrew G. Stanton\My Documents\california-tours-2002-11-23\japanlafliers\view.xar --> ftp.california-tour.com /public_html/japanlafliers view.xar
2002.11.24 17:05 B C:\Documents and Settings\Andrew G. Stanton\My Documents\california-tours-2002-11-23\japanlafliers\framewimg.html --> ftp.california-tour.com /public_html/japanlafliers framewimg.html
